%YAML 1.1
%TAG !u! tag:unity3d.com,2011:
--- !u!114 &11400000
MonoBehaviour:
  m_ObjectHideFlags: 0
  m_CorrespondingSourceObject: {fileID: 0}
  m_PrefabInstance: {fileID: 0}
  m_PrefabAsset: {fileID: 0}
  m_GameObject: {fileID: 0}
  m_Enabled: 1
  m_EditorHideFlags: 0
  m_Script: {fileID: 11500000, guid: 9d1514134bc4fbd41bb739b1b9a49231, type: 3}
  m_Name: CavernFloorTile
  m_EditorClassIdentifier: 
  m_DefaultSprite: {fileID: 21300012, guid: e2f0235567d674271b5fa41c6c603fb5, type: 3}
  m_DefaultColliderType: 1
  m_TilingRules:
  - m_Neighbors: 0000000002000000000000000100000001000000000000000000000000000000
    m_Sprites:
    - {fileID: 21300012, guid: e2f0235567d674271b5fa41c6c603fb5, type: 3}
    m_AnimationSpeed: 1
    m_PerlinScale: 0.5
    m_RuleTransform: 0
    m_Output: 0
    m_ColliderType: 1
    m_RandomTransform: 0
  - m_Neighbors: 0000000001000000000000000100000001000000000000000100000000000000
    m_Sprites:
    - {fileID: 21300016, guid: e2f0235567d674271b5fa41c6c603fb5, type: 3}
    m_AnimationSpeed: 1
    m_PerlinScale: 0.5
    m_RuleTransform: 0
    m_Output: 0
    m_ColliderType: 1
    m_RandomTransform: 0
  - m_Neighbors: 0000000001000000000000000100000001000000000000000200000000000000
    m_Sprites:
    - {fileID: 21300040, guid: e2f0235567d674271b5fa41c6c603fb5, type: 3}
    m_AnimationSpeed: 1
    m_PerlinScale: 0.5
    m_RuleTransform: 0
    m_Output: 0
    m_ColliderType: 1
    m_RandomTransform: 0
  - m_Neighbors: 0000000002000000000000000200000001000000000000000100000000000000
    m_Sprites:
    - {fileID: 21300002, guid: e2f0235567d674271b5fa41c6c603fb5, type: 3}
    m_AnimationSpeed: 1
    m_PerlinScale: 0.5
    m_RuleTransform: 0
    m_Output: 0
    m_ColliderType: 1
    m_RandomTransform: 0
  - m_Neighbors: 0000000001000000020000000100000001000000000000000100000001000000
    m_Sprites:
    - {fileID: 21300018, guid: e2f0235567d674271b5fa41c6c603fb5, type: 3}
    m_AnimationSpeed: 1
    m_PerlinScale: 0.5
    m_RuleTransform: 0
    m_Output: 0
    m_ColliderType: 1
    m_RandomTransform: 0
  - m_Neighbors: 0000000001000000000000000000000002000000000000000100000000000000
    m_Sprites:
    - {fileID: 21300028, guid: e2f0235567d674271b5fa41c6c603fb5, type: 3}
    m_AnimationSpeed: 1
    m_PerlinScale: 0.5
    m_RuleTransform: 0
    m_Output: 0
    m_ColliderType: 1
    m_RandomTransform: 0
  - m_Neighbors: 0000000000000000000000000000000000000000000000000000000000000000
    m_Sprites:
    - {fileID: 0}
    m_AnimationSpeed: 1
    m_PerlinScale: 0.5
    m_RuleTransform: 0
    m_Output: 0
    m_ColliderType: 1
    m_RandomTransform: 0
